{"id":"aeac633e-3122-4b37-a075-4d7848676e76",
  "state":[],
  "versions":[
    {
      "amount":{
        "amount":12,
        "currency":"EUR"
      },
      "reason":{
        "what":"qaw",
        "wherefor":"wase"
      },
      "iban":"qwe",
      "bic":"qwe",
      "request":false,
      "created":1564755636261,
      "updated":1564755636261,
      "crewId": "c782ae6b-5d84-4272-a2af-ea9473c55b11"

    }
  ],
  "actions":[]
}
